{
  "project_info": {
    "project_number": "461904943210",
    "firebase_url": "https://bochk-boc-pay-uat.firebaseio.com",
    "project_id": "bochk-boc-pay-uat",
    "storage_bucket": "bochk-boc-pay-uat.appspot.com"
  },
  "client": [
    {
      "client_info": {
        "mobilesdk_app_id": "1:461904943210:android:5969edf1743bf15f",
        "android_client_info": {
          "package_name": "com.bochk.ewallet"
        }
      },
      "oauth_client": [
        {
          "client_id": "461904943210-qd8651ea4jrv03pka5j9mp907g3sa22c.apps.googleusercontent.com",
          "client_type": 3
        }
      ],
      "api_key": [
        {
          "current_key": "AIzaSyCOVburp3EkdtcExGWwzHxU40IXN5TgKZc"
        }
      ],
      "services": {
        "analytics_service": {
          "status": 1
        },
        "appinvite_service": {
          "status": 1,
          "other_platform_oauth_client": []
        },
        "ads_service": {
          "status": 2
        }
      }
    }
  ],
  "configuration_version": "1"
}