{
  "areaItems": [
    {
      "childNames": [
        "中西区",
        "南区",
        "东区",
        "湾仔区"
      ],
      "pName": "香港岛"
    },
    {
      "childNames": [
        "九龙城区",
        "油尖旺区",
        "深水埗区",
        "观塘区",
        "黄大仙区"
      ],
      "pName": "九龙"
    },
    {
      "childNames": [
        "元朗区",
        "北区",
        "大埔区",
        "屯门区",
        "沙田区",
        "荃湾区",
        "葵青区",
        "西贡区",
        "离岛区"
      ],
      "pName": "新界"
    }
  ]
}