{
  "data": [
    {
      "Code": "AED",
      "Num": 784
    },
    {
      "Code": "AFN",
      "Num": 971
    },
    {
      "Code": "ALL",
      "Num": 8
    },
    {
      "Code": "AMD",
      "Num": 51
    },
    {
      "Code": "ANG",
      "Num": 532
    },
    {
      "Code": "AOA",
      "Num": 973
    },
    {
      "Code": "ARS",
      "Num": 32
    },
    {
      "Code": "AUD",
      "Num": 36
    },
    {
      "Code": "AWG",
      "Num": 533
    },
    {
      "Code": "AZN",
      "Num": 944
    },
    {
      "Code": "BAM",
      "Num": 977
    },
    {
      "Code": "BBD",
      "Num": 52
    },
    {
      "Code": "BDT",
      "Num": 50
    },
    {
      "Code": "BGN",
      "Num": 975
    },
    {
      "Code": "BHD",
      "Num": 48
    },
    {
      "Code": "BIF",
      "Num": 108
    },
    {
      "Code": "BMD",
      "Num": 60
    },
    {
      "Code": "BND",
      "Num": 96
    },
    {
      "Code": "BOB",
      "Num": 68
    },
    {
      "Code": "BOV",
      "Num": 984
    },
    {
      "Code": "BRL",
      "Num": 986
    },
    {
      "Code": "BSD",
      "Num": 44
    },
    {
      "Code": "BTN",
      "Num": 64
    },
    {
      "Code": "BWP",
      "Num": 72
    },
    {
      "Code": "BYN",
      "Num": 933
    },
    {
      "Code": "BZD",
      "Num": 84
    },
    {
      "Code": "CAD",
      "Num": 124
    },
    {
      "Code": "CDF",
      "Num": 976
    },
    {
      "Code": "CHE",
      "Num": 947
    },
    {
      "Code": "CHF",
      "Num": 756
    },
    {
      "Code": "CHW",
      "Num": 948
    },
    {
      "Code": "CLF",
      "Num": 990
    },
    {
      "Code": "CLP",
      "Num": 152
    },
    {
      "Code": "CNY",
      "Num": 156
    },
    {
      "Code": "COP",
      "Num": 170
    },
    {
      "Code": "COU",
      "Num": 970
    },
    {
      "Code": "CRC",
      "Num": 188
    },
    {
      "Code": "CUC",
      "Num": 931
    },
    {
      "Code": "CUP",
      "Num": 192
    },
    {
      "Code": "CVE",
      "Num": 132
    },
    {
      "Code": "CZK",
      "Num": 203
    },
    {
      "Code": "DJF",
      "Num": 262
    },
    {
      "Code": "DKK",
      "Num": 208
    },
    {
      "Code": "DOP",
      "Num": 214
    },
    {
      "Code": "DZD",
      "Num": 12
    },
    {
      "Code": "EGP",
      "Num": 818
    },
    {
      "Code": "ERN",
      "Num": 232
    },
    {
      "Code": "ETB",
      "Num": 230
    },
    {
      "Code": "EUR",
      "Num": 978
    },
    {
      "Code": "FJD",
      "Num": 242
    },
    {
      "Code": "FKP",
      "Num": 238
    },
    {
      "Code": "GBP",
      "Num": 826
    },
    {
      "Code": "GEL",
      "Num": 981
    },
    {
      "Code": "GHS",
      "Num": 936
    },
    {
      "Code": "GIP",
      "Num": 292
    },
    {
      "Code": "GMD",
      "Num": 270
    },
    {
      "Code": "GNF",
      "Num": 324
    },
    {
      "Code": "GTQ",
      "Num": 320
    },
    {
      "Code": "GYD",
      "Num": 328
    },
    {
      "Code": "HKD",
      "Num": 344
    },
    {
      "Code": "HNL",
      "Num": 340
    },
    {
      "Code": "HRK",
      "Num": 191
    },
    {
      "Code": "HTG",
      "Num": 332
    },
    {
      "Code": "HUF",
      "Num": 348
    },
    {
      "Code": "IDR",
      "Num": 360
    },
    {
      "Code": "ILS",
      "Num": 376
    },
    {
      "Code": "INR",
      "Num": 356
    },
    {
      "Code": "IQD",
      "Num": 368
    },
    {
      "Code": "IRR",
      "Num": 364
    },
    {
      "Code": "ISK",
      "Num": 352
    },
    {
      "Code": "JMD",
      "Num": 388
    },
    {
      "Code": "JOD",
      "Num": 400
    },
    {
      "Code": "JPY",
      "Num": 392
    },
    {
      "Code": "KES",
      "Num": 404
    },
    {
      "Code": "KGS",
      "Num": 417
    },
    {
      "Code": "KHR",
      "Num": 116
    },
    {
      "Code": "KMF",
      "Num": 174
    },
    {
      "Code": "KPW",
      "Num": 408
    },
    {
      "Code": "KRW",
      "Num": 410
    },
    {
      "Code": "KWD",
      "Num": 414
    },
    {
      "Code": "KYD",
      "Num": 136
    },
    {
      "Code": "KZT",
      "Num": 398
    },
    {
      "Code": "LAK",
      "Num": 418
    },
    {
      "Code": "LBP",
      "Num": 422
    },
    {
      "Code": "LKR",
      "Num": 144
    },
    {
      "Code": "LRD",
      "Num": 430
    },
    {
      "Code": "LSL",
      "Num": 426
    },
    {
      "Code": "LYD",
      "Num": 434
    },
    {
      "Code": "MAD",
      "Num": 504
    },
    {
      "Code": "MDL",
      "Num": 498
    },
    {
      "Code": "MGA",
      "Num": 969
    },
    {
      "Code": "MKD",
      "Num": 807
    },
    {
      "Code": "MMK",
      "Num": 104
    },
    {
      "Code": "MNT",
      "Num": 496
    },
    {
      "Code": "MOP",
      "Num": 446
    },
    {
      "Code": "MRU[12]",
      "Num": 929
    },
    {
      "Code": "MUR",
      "Num": 480
    },
    {
      "Code": "MVR",
      "Num": 462
    },
    {
      "Code": "MWK",
      "Num": 454
    },
    {
      "Code": "MXN",
      "Num": 484
    },
    {
      "Code": "MXV",
      "Num": 979
    },
    {
      "Code": "MYR",
      "Num": 458
    },
    {
      "Code": "MZN",
      "Num": 943
    },
    {
      "Code": "NAD",
      "Num": 516
    },
    {
      "Code": "NGN",
      "Num": 566
    },
    {
      "Code": "NIO",
      "Num": 558
    },
    {
      "Code": "NOK",
      "Num": 578
    },
    {
      "Code": "NPR",
      "Num": 524
    },
    {
      "Code": "NZD",
      "Num": 554
    },
    {
      "Code": "OMR",
      "Num": 512
    },
    {
      "Code": "PAB",
      "Num": 590
    },
    {
      "Code": "PEN",
      "Num": 604
    },
    {
      "Code": "PGK",
      "Num": 598
    },
    {
      "Code": "PHP",
      "Num": 608
    },
    {
      "Code": "PKR",
      "Num": 586
    },
    {
      "Code": "PLN",
      "Num": 985
    },
    {
      "Code": "PYG",
      "Num": 600
    },
    {
      "Code": "QAR",
      "Num": 634
    },
    {
      "Code": "RON",
      "Num": 946
    },
    {
      "Code": "RSD",
      "Num": 941
    },
    {
      "Code": "RUB",
      "Num": 643
    },
    {
      "Code": "RWF",
      "Num": 646
    },
    {
      "Code": "SAR",
      "Num": 682
    },
    {
      "Code": "SBD",
      "Num": 90
    },
    {
      "Code": "SCR",
      "Num": 690
    },
    {
      "Code": "SDG",
      "Num": 938
    },
    {
      "Code": "SEK",
      "Num": 752
    },
    {
      "Code": "SGD",
      "Num": 702
    },
    {
      "Code": "SHP",
      "Num": 654
    },
    {
      "Code": "SLL",
      "Num": 694
    },
    {
      "Code": "SOS",
      "Num": 706
    },
    {
      "Code": "SRD",
      "Num": 968
    },
    {
      "Code": "SSP",
      "Num": 728
    },
    {
      "Code": "STN[14]",
      "Num": 930
    },
    {
      "Code": "SVC",
      "Num": 222
    },
    {
      "Code": "SYP",
      "Num": 760
    },
    {
      "Code": "SZL",
      "Num": 748
    },
    {
      "Code": "THB",
      "Num": 764
    },
    {
      "Code": "TJS",
      "Num": 972
    },
    {
      "Code": "TMT",
      "Num": 934
    },
    {
      "Code": "TND",
      "Num": 788
    },
    {
      "Code": "TOP",
      "Num": 776
    },
    {
      "Code": "TRY",
      "Num": 949
    },
    {
      "Code": "TTD",
      "Num": 780
    },
    {
      "Code": "TWD",
      "Num": 901
    },
    {
      "Code": "TZS",
      "Num": 834
    },
    {
      "Code": "UAH",
      "Num": 980
    },
    {
      "Code": "UGX",
      "Num": 800
    },
    {
      "Code": "USD",
      "Num": 840
    },
    {
      "Code": "USN",
      "Num": 997
    },
    {
      "Code": "UYI",
      "Num": 940
    },
    {
      "Code": "UYU",
      "Num": 858
    },
    {
      "Code": "UZS",
      "Num": 860
    },
    {
      "Code": "VEF",
      "Num": 937
    },
    {
      "Code": "VND",
      "Num": 704
    },
    {
      "Code": "VUV",
      "Num": 548
    },
    {
      "Code": "WST",
      "Num": 882
    },
    {
      "Code": "XAF",
      "Num": 950
    },
    {
      "Code": "XAG",
      "Num": 961
    },
    {
      "Code": "XAU",
      "Num": 959
    },
    {
      "Code": "XBA",
      "Num": 955
    },
    {
      "Code": "XBB",
      "Num": 956
    },
    {
      "Code": "XBC",
      "Num": 957
    },
    {
      "Code": "XBD",
      "Num": 958
    },
    {
      "Code": "XCD",
      "Num": 951
    },
    {
      "Code": "XDR",
      "Num": 960
    },
    {
      "Code": "XOF",
      "Num": 952
    },
    {
      "Code": "XPD",
      "Num": 964
    },
    {
      "Code": "XPF",
      "Num": 953
    },
    {
      "Code": "XPT",
      "Num": 962
    },
    {
      "Code": "XSU",
      "Num": 994
    },
    {
      "Code": "XTS",
      "Num": 963
    },
    {
      "Code": "XUA",
      "Num": 965
    },
    {
      "Code": "XXX",
      "Num": 999
    },
    {
      "Code": "YER",
      "Num": 886
    },
    {
      "Code": "ZAR",
      "Num": 710
    },
    {
      "Code": "ZMW",
      "Num": 967
    },
    {
      "Code": "ZWL",
      "Num": 932
    }
  ]
}