{
  "fileUpload": "https://vssuat.ftcwifi.com/VSS/FileUpload",
  "getSeqNumber": "https://frpusmk.ftcwifi.com/servlet/FrpGetSeqNumber",
  "faceLiveness": "https://frpusmk.ftcwifi.com/servlet/FrpFaceLiveness",
  "postlog": "https://frpusmk.ftcwifi.com/servlet/FrpLogBackToServer",
  "eventTracking": "https://frpusmk.ftcwifi.com/servlet/FrpEventTracking",
  "getServerParam": "https://frpusmk.ftcwifi.com/servlet/FrpGetServerParam",
  "webLinkS": "https://www.bochk.com/creditcard/BOCPAY/video/BoC_Pay_New_Function_Video_Facial.mp4",
  "webLinkT": "https://www.bochk.com/creditcard/BOCPAY/video/BoC_Pay_New_Function_Video_Facial.mp4",
  "webLinkE": "https://www.bochk.com/creditcard/BOCPAY/video/BoC_Pay_New_Function_Video_Facial.mp4"
}